module_verification/transcript
# //  ModelSim SE 6.5 Jan 22 2009 
# //
# //  Copyright 1991-2009 Mentor Graphics Corporation
# //              All Rights Reserved.
# //
# //  THIS WORK CONTAINS TRADE SECRET AND 
# //  PROPRIETARY INFORMATION WHICH IS THE PROPERTY
# //  OF MENTOR GRAPHICS CORPORATION OR ITS LICENSORS
# //  AND IS SUBJECT TO LICENSE TERMS.
# //
# do sim32.do 
# ** Warning: (vlib-34) Library already exists at "work".
# Model Technology ModelSim SE vlog 6.5 Compiler 2009.01 Jan 22 2009
# ** Warning: ./src/t_altivec_env_pkg.sv(269): Unterminated string literal continues onto next line.
# -- Skipping package t_altivec_env_pkg
# -- Skipping module altivec_dut
# -- Skipping module altivec_sva
# -- Skipping module top_class_based
# -- Compiling module vsfx_top
# -- Skipping module vaddsws
# -- Skipping module vsububm
# -- Skipping module vavgsh
# -- Skipping module vcmpequh
# -- Skipping module vslb
# 
# Top level modules:
# 	top_class_based
# Model Technology ModelSim SE vlog 6.5 Compiler 2009.01 Jan 22 2009
# ** Warning: ./src/t_altivec_env_pkg.sv(269): Unterminated string literal continues onto next line.
# -- Skipping package t_altivec_env_pkg
# -- Skipping module altivec_dut
# -- Skipping module altivec_sva
# -- Skipping module top_class_based
# -- Skipping module vsfx_top
# -- Skipping module vaddsws
# -- Skipping module vsububm
# -- Skipping module vavgsh
# -- Skipping module vcmpequh
# -- Skipping module vslb
# 
# Top level modules:
# 	top_class_based
# vsim -c -wlfdeleteonquit -novopt -sv_lib altivec32 top_class_based 
# Loading sv_std.std
# Loading work.t_altivec_env_pkg
# Loading work.top_class_based
# Loading work.altivec_dut
# Refreshing C:\Users\shintaku\Desktop\AltiVec\module_verification\work.vsfx_top
# Loading work.vsfx_top
# Loading work.vaddsws
# Loading work.vsububm
# Loading work.vavgsh
# Loading work.vcmpequh
# Loading work.vslb
# Loading work.altivec_sva
# Loading .\altivec32.dll
# -> vra = 1f3de4b432a89de0b17860155d6e9ba3, vrb = 3325589255c7df1bfeae777877e5b4b8, ins =   4(vaddsws   )
# -> vra = c2ac329544d9de8103d0025716f5adbf, vrb = ba7eee58ca891ebca8ab812d28e7624e, ins =  15(vsububm   )
# -> vra = 99a98b057497db82973607b8ad63c705, vrb = 7ef7c3ffad138d84f9a9010b639ed51b, ins =  15(vsububm   )
# -> vra = 609c6552a4bf24608ecda8dc7921cd25, vrb = d31ad7516e87bc654ed5161bf0fd5f28, ins =  42(vcmpequh  , rc = 0)
# -> vra = 7f0c8863ba5df37a6e27e3990c9771fd, vrb = 7ecb0c33a15af97cfe13b2d814d2aa37, ins =   4(vaddsws   )
# -> vra = 5f1911014241bcfd4f684d404b0e3ce3, vrb = e0200cc38bbf6b8d74f0ce98310823b6, ins =   4(vaddsws   )
# -> vra = 698a9bb9a39035e66bd02f80cb6cf69c, vrb = 64edddb0e178a1a66023998529c13eab, ins =   4(vaddsws   )
# -> vra = 1cfcbd134933a1350f9ab0247d75be13, vrb = 65c050dd160cc500de82f3700efb95f9, ins =  42(vcmpequh  , rc = 1)
# -> vra = 2b974c21f2ade16c9c314e25304c8aff, vrb = 32498fe960c56f1b355de93be4c74ad2, ins =  62(vslb      )
# -> vra = e54cbc368ee09ee46c7be957fb13e8fa, vrb = a27fb9f9bbe9a486b46707333a774beb, ins =  15(vsububm   )
# -> vra = 74c69c6643bc7b8008f1dffe7cca299b, vrb = 882047c0ca87d5add59065876eb96aa1, ins =  15(vsububm   )
# -> vra = 6fba34ff343f06fcc42993b365bbfb1b, vrb = 61ce6f6961f26fa057875278d023f560, ins =  22(vavgsh    )
# -> vra = c0daf374b725870c3efb55ddb309aa57, vrb = 7e608db5deaa23b4f93054bdb7e168dc, ins =  42(vcmpequh  , rc = 0)
# -> vra = 818288004e1b6bc1b1c768494feada9b, vrb = 280260dfb44c400614c61938c738a057, ins =  62(vslb      )
# -> vra = b0e8983e3223e63d1cab548c61ee8c56, vrb = f1bb719980884364eecfeb977ab4e281, ins =   4(vaddsws   )
# -> vra = 7193a0b46aa22b554b6e1b573c8cf7d9, vrb = 97abbd86f2d41b5c81b5ea0df0b4a7c4, ins =  15(vsububm   )
# -> vra = c468117f4b67311d64d914ebf35efb8f, vrb = dccd1de814b57af30ecfc226b757310d, ins =  62(vslb      )
# -> vra = 08713f704d116b74fa5b28deba88aaa0, vrb = 485ed7f8100067487b07a1d4ae9c1aa5, ins =  22(vavgsh    )
# -> vra = c2bb697dc5b4c3441ff061ee9b7aa2ef, vrb = 9a53b792b081917fcbb8c544aef60f89, ins =  42(vcmpequh  , rc = 0)
# -> vra = ebcb507a2cc32ab34e6070d8cee254ef, vrb = 1259353f1a6dfcf48415123f2d77c539, ins =  15(vsububm   )
# -> vra = c32241b5c52fffc56f65d378b36f74b3, vrb = 66aa28c488374104c1b5b0322b35baaa, ins =  42(vcmpequh  , rc = 0)
# -> vra = ddad6868e54ce219661432bbec2b6b8d, vrb = e47c1a27c33c74ce893884f300cbb143, ins =  22(vavgsh    )
# -> vra = 19a8a1495aa4fc4287dfd30dd7e32aeb, vrb = f8535bc41e92f2aae8203e16a6dc445f, ins =  22(vavgsh    )
# -> vra = b694e1fbf6385a7c103a4a6a7493dc0b, vrb = b84153a6feb21b28f126bf7cc92b775f, ins =  15(vsububm   )
# -> vra = 1b5f00b8df7e2b6607b547b7f25234a2, vrb = b63acbb5c8e4a7f1920d099876a8095e, ins =  42(vcmpequh  , rc = 0)
# -> vra = 4e1af763b3d859ce8ed1b106f184bfc0, vrb = 9b50e8651b9c49804397797863db2e10, ins =  62(vslb      )
# -> vra = b4cf40c357f973ae762958998c4af17c, vrb = 55dcdcb77a1c88615b01eb0039923b9d, ins =  42(vcmpequh  , rc = 0)
# -> vra = b014af0ed3d10a78317a72518ebd73c1, vrb = 668aab3248866bc0df73a89af0951c00, ins =   4(vaddsws   )
# -> vra = b52aae3d18af44324741d0debc941f1f, vrb = ca0a86d9ae9cbdd68246343c98c75ff1, ins =  62(vslb      )
# -> vra = 71b274d25cc29c73573dd3969c6db0af, vrb = d793d0827725f310c233f39ccb4307a6, ins =  22(vavgsh    )
# -> vra = c39c60f03c599af8cd35120e10149e2d, vrb = b6a57f985cde46c59defeee8a633cf02, ins =  42(vcmpequh  , rc = 0)
# -> vra = 05c9f7a6b6b332d03a17f17a902540a7, vrb = ea4073eb46d115d1de6e9a02dcc39d1b, ins =   4(vaddsws   )
# -> vra = a8434e44bc88eac6993607d65fc75a04, vrb = bd436ed1ea3589174db3fab2adb23147, ins =  62(vslb      )
# -> vra = 36d77013077e0233425b1f81b9e75fd4, vrb = 7a6d38a2bd7e69634ff038a27b84cf75, ins =  15(vsububm   )
# -> vra = 2117fd869f82299f2f16b5513c22e42d, vrb = 01bf998238d41e3cb94dbc11c009e8ce, ins =  15(vsububm   )
# -> vra = c900c0412021aac0e2553115423faa4b, vrb = 198e16c2d40b33c26d96dccebf5d03c3, ins =  42(vcmpequh  , rc = 0)
# -> vra = 922ae184898a7a52ce28393b0e02b0bd, vrb = 7abe6f913490cb34e79e81e98bee1ad4, ins =  62(vslb      )
# -> vra = 5d6162af1b62906f6e67cb850e1aaf2a, vrb = 946dbac415b174159345aea7471b9b7d, ins =   4(vaddsws   )
# -> vra = bd31f7a91d58260026ced4d361182a6f, vrb = ab46e964a0994b23335383fd0df29733, ins =  15(vsububm   )
# -> vra = bb78b9acd91434c0adac9ef6826a82db, vrb = e1240fcee9769e2da1072329c8a61f15, ins =  42(vcmpequh  , rc = 1)
# -> vra = 616cfdbf798f3eb958557c7d672278c2, vrb = 0c4c5a3df6fd08fa91348a19bb11effe, ins =  42(vcmpequh  , rc = 0)
# -> vra = de9697e0ec116c176a9927c671a0bd78, vrb = 7df5a7c257cd0c27db35667a5fe61a1c, ins =  42(vcmpequh  , rc = 1)
# -> vra = 0421a21b0ea0d67b64cf652b6cc14bcf, vrb = 2b63002d6f773a82d4d72e5ab43e765f, ins =  22(vavgsh    )
# -> vra = e44b03bb9777d446c97d78237b6fc467, vrb = 8d67cf16e2a150ce50b964877161d3a4, ins =   4(vaddsws   )
# -> vra = 040babf6413cbfe044539d5afea81d97, vrb = 7070616649b9f338137e19496897c183, ins =  22(vavgsh    )
# -> vra = 551da0cff1b63a21cabed88a6a245c93, vrb = ff7364f0f7d172912c54bc4942a9efe5, ins =  42(vcmpequh  , rc = 0)
# -> vra = 2a802cc8a8f2c75ae0207ba4c13c9735, vrb = 83f7235bb76672be473205dbe127c06a, ins =  42(vcmpequh  , rc = 1)
# -> vra = 18bbfc651a62139db7a4138933b7478a, vrb = b4017951b9ac376d620e9b267c790dff, ins =  42(vcmpequh  , rc = 0)
# -> vra = 3d4b4e8a89ca1f3c11d9c26987ac3e69, vrb = a734dffd4a602a6b9895eb3e823a9233, ins =  42(vcmpequh  , rc = 1)
# -> vra = 5ed6318855ddf20bf5a21fba237589cc, vrb = 453e6f2ee928f2391e49f5c252be8004, ins =  22(vavgsh    )
# -> vra = 9650aad8d08d4ccddeecf43ded48e6da, vrb = 31489c5a19dd676354dacbc1bc082baa, ins =  15(vsububm   )
# -> vra = 02ac90fd81f83a0e4cc2aa02e12bf94d, vrb = 44b64bb9dca095de76963a0a530afbfd, ins =   4(vaddsws   )
# -> vra = c9d767186e79423ce75d95b423d12b17, vrb = 36f3738679e8f21347cd462e65b052ec, ins =   4(vaddsws   )
# -> vra = 317f306e4a2c22db753e45cf1f093abd, vrb = 4e1a8c44f44b8f2ff816b9eaf5be95b3, ins =  62(vslb      )
# -> vra = 2ac8135a1fa96b63654afe7765e82393, vrb = c323565813596ad6354cb4f24dde5c4b, ins =  62(vslb      )
# -> vra = 67046b51d25ec094bb89b9d5f57faef5, vrb = 00fcac4dd2d3b1ed92ae9b383c8582ad, ins =  42(vcmpequh  , rc = 1)
# -> vra = 601d7446261373ac601a9510c0bc8e2c, vrb = 182736dc6ffbc3eb000e3e51bf009a51, ins =  22(vavgsh    )
# -> vra = ec6e85ffafc9d8096b47ebb349d341ed, vrb = 9b9eaeca321be257e767067c50d8bc7e, ins =  42(vcmpequh  , rc = 0)
# -> vra = e17dfe8115eebee118a882f95cc75f90, vrb = c8626067a90624c76ae38cfad5052b03, ins =  15(vsububm   )
# -> vra = af21bcb0a74e7ae860dc47903adf1803, vrb = ef70f5b36169b2b7dc5fa6a9c65c72c6, ins =  42(vcmpequh  , rc = 1)
# -> vra = 6596936c741b51aac5206f3ef68b036b, vrb = 352baeba6fc36c122f57bf1d97fdc453, ins =  62(vslb      )
# -> vra = 8617d1a8f9b14364173c9539bf8e9504, vrb = 0b7565ae485aab532104ec5dc6106ea5, ins =  62(vslb      )
# -> vra = c7bf71a3d2707b24c8f67fe7c9341255, vrb = 4a6405293e2c37303ba036fe2bac3a69, ins =  22(vavgsh    )
# -> vra = a67b353235687af38e3f125cbd7f9fd3, vrb = aee951b93c723b83a7e6a5fb85ab6981, ins =  62(vslb      )
# -> vra = b479e0c239d226d66ae4c6a093e1cf95, vrb = c2c6db07fd882b13d0c320263398f6ee, ins =  15(vsububm   )
# -> vra = 60a304b842e0a8eabc123eec8030e366, vrb = 127329100132e124b6318c6662b6a9bc, ins =   4(vaddsws   )
# -> vra = 08fc08fe38f0baa5f90dc7fac12c5741, vrb = 86d0c162346ed025284975d51712be2d, ins =  42(vcmpequh  , rc = 1)
# -> vra = 9aea45fc2755f1d8c69f99af3887f902, vrb = 988e27bdad3285c24ffe836252ce8574, ins =   4(vaddsws   )
# -> vra = 8fd3e9f440868e48fc81e9a0fddf1866, vrb = 998bb9437add7f08c5d34e28eb1b5ee6, ins =  15(vsububm   )
# -> vra = a0ed58ecdf11f06a8764051f1a98e327, vrb = 1327586b589e4cd895036f58604e9c8f, ins =  62(vslb      )
# -> vra = d2dfaa34653dc0e91a2d82f571ad6903, vrb = 87f9216544df6c15062b950dd4b92a64, ins =  15(vsububm   )
# -> vra = fc5b71a84c56fd6f5ef35ed22e5ee965, vrb = 28d316e2d6d6beab0cd3da77ab459535, ins =  42(vcmpequh  , rc = 1)
# -> vra = d124cdb9fc92080896a11573070d24b5, vrb = c407ee65df8d91cf5420fc15fe2ca3aa, ins =  62(vslb      )
# -> vra = efe54bd84a4451609843d3065d0ae169, vrb = f8e4e699e025600103f3cc20d49128c6, ins =  22(vavgsh    )
# -> vra = 7f52a501573e2d5f083cde4d8bffef35, vrb = 8839fd2a0a237038575432a271b3cd80, ins =  22(vavgsh    )
# -> vra = 242d82be7aa15fb59db2fff59d97bec9, vrb = c253b6356038fc2b16340377df1f4be5, ins =  42(vcmpequh  , rc = 1)
# -> vra = 4155618b1721560e794ef0f3bcc78250, vrb = fe14b3af70902d3125da0d6fa995a207, ins =  22(vavgsh    )
# -> vra = 1d05397bde0d7f9e53c77beb8dfa95eb, vrb = 8066b98f7c1bb5bf3c417c8914e0cc14, ins =  42(vcmpequh  , rc = 1)
# -> vra = fd8adcb55c4239aebc863cc3ac0ae56d, vrb = d4d39bd90ae5b25d63778672687b107f, ins =  62(vslb      )
# -> vra = f9a77f144b1044d90d5bd1bc9ce41791, vrb = 6566a1daf4fa9ec321e6d85dd288be2a, ins =  22(vavgsh    )
# -> vra = 7d1498d5ad776ffc4dffd35a273be574, vrb = 4ae3c37cbc61d34af5ab53a6c0e08500, ins =  42(vcmpequh  , rc = 1)
# -> vra = 09f14a86e0b524a9db57fded662fd125, vrb = 6137e153ed6c6c5a5997fe926ca90d14, ins =  22(vavgsh    )
# -> vra = 0f01ce260b7112d12fac8d807bcd91d8, vrb = df94e6783dabb344289cbe46c2c1d72e, ins =  62(vslb      )
# -> vra = b2c396cabc39846821f6fbdac44da6e9, vrb = 5c1442fc5cdb5c312e005c80fd4160af, ins =  62(vslb      )
# -> vra = c65036aac86607fcf0837fe0ddb8f970, vrb = 9a9ab8b1c1ff62bb869f70259699867a, ins =   4(vaddsws   )
# -> vra = 6f1be08e0c83dbf6342ce44a80e503e6, vrb = 4ff7403345233c257d153ba70c0bab40, ins =  42(vcmpequh  , rc = 0)
# -> vra = 02ecb8054ae1ad0685c330b09d0deaed, vrb = 03e99d22e0e9d6be268b8bea9c119120, ins =  62(vslb      )
# -> vra = 0581254cb6aa8b0f7fbd5106770ae9b2, vrb = 22fe64efa713d446cf86f833f984fd7a, ins =  15(vsububm   )
# -> vra = 82b99fc798efa4d73a8eb275eec35130, vrb = f34a29c71d4c1b4e6305be57bdec7fe1, ins =  15(vsububm   )
# -> vra = 967629593c17f9a618a42a9d3b896900, vrb = 919d60787dc5ed3a4ed47c53a0c49d03, ins =  15(vsububm   )
# -> vra = ad2ad9855a9aae2f3ac453c6b4b3b7ee, vrb = 0d906263dd42b227b4d3521de417e812, ins =  15(vsububm   )
# -> vra = b8b3bd02aae5058da809337b1b842b29, vrb = de8012c4132881859423fb593c9e2fb8, ins =  15(vsububm   )
# -> vra = cf6dbdd4d24f6e00d5bca2af0950e35f, vrb = b7a787f6222218f3a597b0609e5808c5, ins =  62(vslb      )
# -> vra = bbcc12cda463ddf655b9674d411c074d, vrb = 2b728971a8601a007f933df1e1766038, ins =   4(vaddsws   )
# -> vra = bd299fa13e95107256aac79ea38e22d5, vrb = bc1964092f42f91daeb4466abdb47399, ins =  42(vcmpequh  , rc = 0)
# -> vra = cf9549ce5df9cb5bc109d7baba33bb55, vrb = 3a433fe66006f716af5f87b334de6289, ins =  62(vslb      )
# -> vra = d8d4593b27dc4e24293bb18e34a9cb88, vrb = a9fa87e98ba7cc7dff680085d2a44f9e, ins =  22(vavgsh    )
# -> vra = d73a097386cfc8be852be595114eaa19, vrb = 69b0b3a856c4e5800956a830420bf43d, ins =  42(vcmpequh  , rc = 1)
# -> vra = 96dd0a5a23083f9883b8b558567b1d43, vrb = c10742f0ef6b774adbe4e615b9a8d7f0, ins =  15(vsububm   )
# -> vra = 42a13a80eae29b38f4e8daecce70185f, vrb = 98699d0f3fcad2dd599716589462a996, ins =  15(vsububm   )
# -> vra = ced55bc5972ff0d600a87e2862e9cfef, vrb = b890fe45c8c3870923b06b97303f04fd, ins =  42(vcmpequh  , rc = 1)
# -> vra = 6099d6f5b63022dc7862a37f7ce37f42, vrb = 14b654df457c6b49d5c38779e0971b65, ins =  22(vavgsh    )
# -> vra = f8e5e4e7598782699800ef64711eefb4, vrb = af15b6d61ed8d8c8831079ab20d55960, ins =  22(vavgsh    )
# -> vra = 1728109239612061266242e6bb4bd42e, vrb = 6974b894544efd0e65ebe165d02df278, ins =   4(vaddsws   )
# -> vra = 9f59cab26362631bf6812adb67c32a8a, vrb = be00769991337d937efb157bace12737, ins =  62(vslb      )
# -> vra = 466a0640dffd3985b669c81b76495195, vrb = ae3d3d64f8a7d51c9d5bfdb94240f610, ins =  15(vsububm   )
# -> vra = 84b5af6301c42a715b693adcbe1344cf, vrb = d75b426e7c59f1fe10bdd894558e12d1, ins =  22(vavgsh    )
# -> vra = 310cb7beb46f8e186ab217ba120c30cf, vrb = d020d9ab4d2a9bd5f4f9363dc8c10bd9, ins =  15(vsububm   )
# -> vra = bd0f6e5e156c0d3e4334db52a5ffbff3, vrb = cd507262de40f5f1fcbf612fb5818081, ins =  42(vcmpequh  , rc = 0)
# -> vra = 7b565793807b205a4a767ee3b84e99f8, vrb = 5813411ba67287426878c4853d68cb21, ins =  42(vcmpequh  , rc = 0)
# -> vra = 078a2caed714d294d649224ee8219791, vrb = 3444a36db1ffe29ee0859fa22df1285e, ins =  62(vslb      )
# -> vra = 62806a5976b6d275b5e97b71b2b7a734, vrb = 93c019ca63a132032a82df3599aac462, ins =  42(vcmpequh  , rc = 1)
# -> vra = 1007a42397f02b7cbee5cd7c688fd5f5, vrb = 3fffe0e310056d093628a603b78cc5c9, ins =  42(vcmpequh  , rc = 1)
# -> vra = 5874b6c9e1213f02662a6335e19a279e, vrb = 5d8c29ef5ad58b55c3a0625c4b5d877f, ins =  62(vslb      )
# -> vra = b69ada076a76cf4015513bda10287e15, vrb = 7319477da40b2cc36490c100082a8b1a, ins =   4(vaddsws   )
# -> vra = 9bdb22e39f14ac670ad0163493be30a4, vrb = 0b9a194c96d49ce7472cdd3c51470ce4, ins =   4(vaddsws   )
# -> vra = abe2cfffee3c7ccc55ae97d3d590443d, vrb = 9ca972ad8180e196dbe6db322e1b8425, ins =  62(vslb      )
# -> vra = 0e9c557b8189bdeb4a1c084ae7a44703, vrb = 589332b8bdc094522d27104ee18bd6dc, ins =  22(vavgsh    )
# -> vra = 61118f6c63215a57c45fc4d0f3b9ed33, vrb = eb610f13e7fce2bfff1b5d4a0f39535e, ins =  15(vsububm   )
# -> vra = 4fca7aea1a2087d483ea3a75ae318c5b, vrb = 972b2d70bbcc4d3c60f4e6a5d5ae7269, ins =   4(vaddsws   )
# -> vra = acdd1b556c03522133949385fd16edac, vrb = fc4cb5fe88087d99d1b6e39f4659f183, ins =  42(vcmpequh  , rc = 1)
# -> vra = ce767115af0fbd92eccbd4e2f078cae2, vrb = fa2a853bcfb687ac0478f546c833e58f, ins =  42(vcmpequh  , rc = 0)
# -> vra = 600fd27a18cab0e60b4cb0b4e03ccc21, vrb = 3d9e87c87069da099d997c5de6b6071a, ins =  22(vavgsh    )
# -> vra = 72574a36ef33d6430728243d832fd576, vrb = f87e7a1daeddb625cc8d8a9418ca5058, ins =  62(vslb      )
# -> vra = 5ff9a5ccdedd69ced9333ca1c3809141, vrb = 47c0c9b123f27402ba87484a0d32f3fe, ins =   4(vaddsws   )
# -> vra = f43f7153d7aa78ed3f1bbd35c34fbabe, vrb = 2ae8349b4aded84f06c49eeeacc4ba45, ins =  22(vavgsh    )
# -> vra = 7f092d7460d5a32f373b17cb38788dd7, vrb = dfc280e0b876556f4061f5353b387e01, ins =  42(vcmpequh  , rc = 0)
# -> vra = 4e2e4ec1ea178c7fc53e9287d4099f14, vrb = 4742573903937411108046ea8a55c954, ins =  42(vcmpequh  , rc = 1)
# -> vra = ca386bc80ecbb54a60691b7cef3401d5, vrb = 43de5ac8d396d7ab0e9b91cd6893cefa, ins =   4(vaddsws   )
# -> vra = 52e5024591b649214462e08b5c911d28, vrb = 1c9b5c588c458c9cd087454397bd4ee3, ins =  42(vcmpequh  , rc = 0)
# -> vra = e54cf8b4ce91770eb8526e355a1039a2, vrb = 7e392af633d9ca26301f471c48ac4c6a, ins =  22(vavgsh    )
# -> vra = 61da2730abcbeae7f7efb30977ac4048, vrb = 521b2dd9cb4d2b9ff23bf044d2489ab8, ins =  62(vslb      )
# -> vra = 7f141874919836bb90de21b681ef755c, vrb = b80798a54408d48b0bbc600b64acea6c, ins =   4(vaddsws   )
# -> vra = 004bd856aa54d766c2f76ce2c7558e75, vrb = 8fd20a2702aa86ee7087ccdf5a3e5814, ins =   4(vaddsws   )
# -> vra = dc816153769eee2a76fdfb40d642ca11, vrb = 0bca3a2b8467430cdcaf37c57c82fec9, ins =  22(vavgsh    )
# -> vra = 38a4f6a692d2cc341e03e03362a7e19e, vrb = 2d7d59fb17691194e62bd026215ed95f, ins =  15(vsububm   )
# -> vra = a12288c97fac49f045ebdf5ddc742e0e, vrb = fe6b7ddb167fb9df304647efcfb3afca, ins =  15(vsububm   )
# -> vra = 832f37f1a1c9be74694dd046379ab662, vrb = a648701985be15126b1613fd98b0afc4, ins =  22(vavgsh    )
# -> vra = fe2e12d7364773dcf2ba97187194c647, vrb = d226673a648118093a3c3425cd725d30, ins =  62(vslb      )
# -> vra = e4fe7db82392f7dd2ec3ef58a6eec364, vrb = 2acd041670dd62657f11332b8eb45dc7, ins =  15(vsububm   )
# -> vra = c5459cb814aa2515e692de81133df310, vrb = aa528442ab237c421af1888252bbc4cd, ins =   4(vaddsws   )
# -> vra = 1d1d75eee6758dbd5aaa934acf07baf5, vrb = 8a111408f5a394116f0e834f6c187997, ins =  42(vcmpequh  , rc = 0)
# -> vra = c576d31ecb6ba343db86f29827d28e65, vrb = dda0313bbeaaef35052b8c8c836b9c41, ins =  22(vavgsh    )
# -> vra = f4fee31752fa42538cefb49a97daf090, vrb = 319e0c68f02ed9d2c6e5437429eb2cc7, ins =  62(vslb      )
# -> vra = 7115dc872f5688b6be17b4da6608f11f, vrb = f1f52084fb8d4ac2250d70040af0af93, ins =  62(vslb      )
# -> vra = 1e6e388d38d7466b8ba11611f554f2f4, vrb = b276c9251c2cba0e2d69f682afca92b4, ins =  15(vsububm   )
# -> vra = 7738afc0c76faa70471d51ae8a25047c, vrb = 5904555435b7d06d1cadd2245856e16b, ins =  15(vsububm   )
# -> vra = 7881e3bc6727c0842a0a97e3962f17f1, vrb = 22e39c4d48401b322329582c24359c7f, ins =  42(vcmpequh  , rc = 1)
# -> vra = fa6e71499a474ef86f1f55f8ae91b6da, vrb = 5188e551623123a38b619764ed53c952, ins =  42(vcmpequh  , rc = 1)
# -> vra = ed1372d575e398d563ea9e483f6b7e9c, vrb = e7f55f098f4c6677033230db05b49187, ins =   4(vaddsws   )
# -> vra = 28234612ca73d00f02dbe0d930627a7b, vrb = 7b6ca9ac378aa6fa93b284c1b51abff9, ins =  62(vslb      )
# -> vra = 42691f2bb98dfd8adc9cc9387cd73af1, vrb = aab5ba2bb412cf09902f522d6627b81f, ins =  15(vsububm   )
# -> vra = ca6e4651ed56b65ccf864732c9f09e36, vrb = 184c21765591b27986ad45b48308ef03, ins =  15(vsububm   )
# -> vra = 8f0f3f028bb349f13c36606f45159262, vrb = 01da6ea4d9e444d6fa78d5b2353b6008, ins =  62(vslb      )
# -> vra = fa2696f042c019c9c02dd779182129d1, vrb = 8b6cb7cf158cfb8fa9e46b98996015a6, ins =  15(vsububm   )
# -> vra = 4783567e8271c2bf1952945596a576b4, vrb = d45ff7788c48e3603198b6102e03d013, ins =  42(vcmpequh  , rc = 0)
# -> vra = d462a506efc95ca90c285dcfb7b1f16f, vrb = 93e2e6173083b3d7fef6a83840b88e9e, ins =  22(vavgsh    )
# -> vra = b9afffd79cc8c00f3fd52e85a1ef58c8, vrb = 7492a0cb9b5773deb984a353989abccc, ins =  62(vslb      )
# -> vra = 9ed3b36567166953575ee2728727c844, vrb = f22e650739c6d077086a0510aec2bfe4, ins =  15(vsububm   )
# -> vra = 9568fcbbfb6c01351afcf366c2b45ea6, vrb = 6dd7be13777c2d65786464ab80c4418b, ins =  15(vsububm   )
# -> vra = d06d02d7d1e44dbfc9f163748d0e331d, vrb = fb2b3a585f654fd4fde48f346ecbddb2, ins =  42(vcmpequh  , rc = 0)
# -> vra = 45ccba5b07fda50f54ddee705c297f7f, vrb = c163749e0e857e40e1e7dd8087577ffa, ins =   4(vaddsws   )
# -> vra = 3c7cd3794aa0a88001f8707228bd4dfa, vrb = da089cc381e73764b16e1e4559597fde, ins =  22(vavgsh    )
# -> vra = 01029e0ec22c4964afeb625150cc748d, vrb = 0449502f1742af638205d3a8d4c350eb, ins =   4(vaddsws   )
# -> vra = c9844d5a5b9d4f6dce8a20957b1e9210, vrb = b531d964a1b53394ddcd27a367b74b1e, ins =  62(vslb      )
# -> vra = e026b8f1b619d191e1f40ed0eb64f984, vrb = 10d267463f4d8c3f1d2634f14f814ed1, ins =  62(vslb      )
# -> vra = 75f19575712d81097214aadf0c4f718e, vrb = b5cdba9d4d68a947eb91f0168259eed3, ins =  42(vcmpequh  , rc = 1)
# -> vra = 9199f89cb092c6c48eeab3f23f79ff29, vrb = 1dc1cc5f339ec0c855ce8836d1d792cd, ins =  22(vavgsh    )
# -> vra = 526cfcb40493ed1b3ff947d3e3b55991, vrb = c5a3ed90fdd4590325d5076b0576ca4a, ins =  42(vcmpequh  , rc = 1)
# -> vra = 4e77b89199a31bd31cebb3019f682ee2, vrb = ddf69c3b8fd6edae16f3987f3934c74e, ins =  15(vsububm   )
# -> vra = aa12e53f0527f0b4509be1242e666b34, vrb = eea61784dea9e756d809b62398d0ee18, ins =   4(vaddsws   )
# -> vra = dfeded172546fe9bd55e1ab2b17750d3, vrb = c4511d1ec9696cfe7a16e856a76c1beb, ins =  42(vcmpequh  , rc = 0)
# -> vra = bb41568b381af74ea93b653b017b381b, vrb = a8e2645b9a66d4be5679f76489dcd4ff, ins =  15(vsububm   )
# -> vra = 9bc5350d2227a5488eca16677d0ab98a, vrb = 56279344726d31df93c7474e2d7519bc, ins =   4(vaddsws   )
# -> vra = 4f8cb180c8f2440510ae09de2ed1ed2e, vrb = a99fab897c2063b0d51f27599257c7b2, ins =   4(vaddsws   )
# -> vra = 27a2cf79ff3c7e032b0b90ce2ea72749, vrb = 923efaf36c9db6115797943665f55888, ins =  15(vsububm   )
# -> vra = bec05eae6d6008bd981832f7ea4ac667, vrb = 30692cfae6bb8893aa5f3cf39eea61d6, ins =  62(vslb      )
# -> vra = a7070368bf1a5a9d7bd6335d0630185f, vrb = 7af8f776b45122f35539589920420094, ins =  62(vslb      )
# -> vra = db74cef2d75ccf3735a3e523928c0c2e, vrb = 2d9c7686464f8b892ab828342a88bd96, ins =  15(vsububm   )
# -> vra = d24e1ade1bb0612b83064cc5fd53778c, vrb = c36877139b36e3d7f87ad55cbf050024, ins =  42(vcmpequh  , rc = 1)
# -> vra = 9f8f2ce52f1303b7c9cf833535ef83c8, vrb = ee567db2537a8973bfe755f3f950c168, ins =  62(vslb      )
# -> vra = 04e6bafaa1c6877b5f5013c954860e14, vrb = 3b5886509c794c67f15e415899655998, ins =  15(vsububm   )
# -> vra = 66e6273dac52773ff051bc456d6a3529, vrb = 3aa7812d4e6db34af38ff34aa8d519a0, ins =  22(vavgsh    )
# -> vra = b699c2ef60593fa1b3bbfa67fcdf2add, vrb = 4e872485d1b543394f58a809de7334e6, ins =  22(vavgsh    )
# -> vra = cd9cf30509fd4700241344b260311a71, vrb = f59ad812c1b01345fc3e66f369c4fb1e, ins =  15(vsububm   )
# -> vra = 306b87a206dc3afde1d446bef9fcba4c, vrb = a2e63b921d026736f1d362b40ebb3117, ins =   4(vaddsws   )
# -> vra = 7ee70b89677b91f7fe86bbdfbbaaf914, vrb = 8b88d56666526c37877278711cbc60c5, ins =  15(vsububm   )
# -> vra = 973f47dfc094610d9c03c2f997f50ac4, vrb = 2f3d4f6196a3897943bdc4544fd653fe, ins =  62(vslb      )
# -> vra = f89d39d1e519e2939d2afcc7f9124fe8, vrb = 6ea31c98a0f09de08244b8ff052773f3, ins =  62(vslb      )
# -> vra = 03b05aff66ffbbb26098e709f2eedfb3, vrb = 8668fa958bf8b50f0c60d8413b5250bf, ins =  15(vsububm   )
# -> vra = dfb89574a64c95922a18c4b887100b27, vrb = 75f6a9b2f4cf72a850358f7874d02c60, ins =  22(vavgsh    )
# -> vra = 1cf5e42933806e4e8df45beb18896d13, vrb = 615565533009a4882f51b09f5197574e, ins =   4(vaddsws   )
# -> vra = f99ecf837f9dda7cc3002940e63124c5, vrb = a721bdd53c76cca89c663480532d285c, ins =  62(vslb      )
# -> vra = cf63492ca0cef30e6c3b168e9c58c2f0, vrb = bd00f91447a6dca27b738a57d9646cee, ins =  62(vslb      )
# -> vra = 836bc7eabe86d1d46abc1bba7851b8b1, vrb = 8002f823ceea7d85376f65e965688371, ins =  42(vcmpequh  , rc = 1)
# -> vra = 5ea03e470980915b3214f63ba38ff2ff, vrb = f0b31b00e8fdb94c889fef7bda6f6774, ins =  15(vsububm   )
# -> vra = 806d8d495c971ebe99f761b40d5649ca, vrb = ad0d1efdb7993818665271dcf28e2dba, ins =  42(vcmpequh  , rc = 1)
# -> vra = bf6c891ba40a544a891e3d0cae859e81, vrb = 5e57f80813631737eda0aa87e625419b, ins =  62(vslb      )
# -> vra = b1495d3c3ac937f8833fa7a5ad1aba68, vrb = 192223ff870b83fc550eedc4a6f7385a, ins =   4(vaddsws   )
# -> vra = 8a096f36425163fa7dadba1323117694, vrb = 66aa9cbfa13a806a5aa955f8793137e2, ins =  15(vsububm   )
